; Engine configuration file.
; It's best edited using the editor UI and not directly,
; since the parameters that go here are not all obvious.
;
; Format:
;   [section] ; section goes between []
;   param=value ; assign values to parameters

config_version=4

_global_script_classes=[  ]
_global_script_class_icons={

}

[application]

config/name="tdwip"
run/main_scene="res://src/main_menu/main_menu.tscn"
config/icon="res://icon.png"
window/size/width=1280
window/size/height=720
window/dpi/allow_hidpi=true

[autoload]

Player="*res://src/autoload/player.gd"
Items="*res://src/autoload/items.gd"
SaveManager="*res://src/autoload/savemanager.gd"
Buildings="*res://src/autoload/buildings.gd"

[display]

window/size/width=1280
window/size/height=720
window/stretch/mode="2d"
window/stretch/aspect="expand"

[input]

ui_scroll_up={
"deadzone": 0.5,
"events": [ Object(InputEventKey,"resource_local_to_scene":false,"resource_name":"","device":0,"alt":false,"shift":false,"control":false,"meta":false,"command":false,"pressed":false,"scancode":89,"unicode":0,"echo":false,"script":null)
 ]
}
ui_scroll_down={
"deadzone": 0.5,
"events": [ Object(InputEventKey,"resource_local_to_scene":false,"resource_name":"","device":0,"alt":false,"shift":false,"control":false,"meta":false,"command":false,"pressed":false,"scancode":85,"unicode":0,"echo":false,"script":null)
 ]
}
1={
"deadzone": 0.5,
"events": [ Object(InputEventKey,"resource_local_to_scene":false,"resource_name":"","device":0,"alt":false,"shift":false,"control":false,"meta":false,"command":false,"pressed":false,"scancode":49,"unicode":0,"echo":false,"script":null)
 ]
}
2={
"deadzone": 0.5,
"events": [ Object(InputEventKey,"resource_local_to_scene":false,"resource_name":"","device":0,"alt":false,"shift":false,"control":false,"meta":false,"command":false,"pressed":false,"scancode":50,"unicode":0,"echo":false,"script":null)
 ]
}
3={
"deadzone": 0.5,
"events": [ Object(InputEventKey,"resource_local_to_scene":false,"resource_name":"","device":0,"alt":false,"shift":false,"control":false,"meta":false,"command":false,"pressed":false,"scancode":51,"unicode":0,"echo":false,"script":null)
 ]
}
4={
"deadzone": 0.5,
"events": [ Object(InputEventKey,"resource_local_to_scene":false,"resource_name":"","device":0,"alt":false,"shift":false,"control":false,"meta":false,"command":false,"pressed":false,"scancode":52,"unicode":0,"echo":false,"script":null)
 ]
}
input={
"deadzone": 0.5,
"events": [ Object(InputEventMouseButton,"resource_local_to_scene":false,"resource_name":"","device":0,"alt":false,"shift":false,"control":false,"meta":false,"command":false,"button_mask":0,"position":Vector2( 0, 0 ),"global_position":Vector2( 0, 0 ),"factor":1.0,"button_index":1,"pressed":false,"doubleclick":false,"script":null)
 ]
}

[input_devices]

pointing/emulate_touch_from_mouse=true

[network]

limits/debugger_stdout/max_chars_per_second=4096
limits/debugger_stdout/max_messages_per_frame=20
limits/debugger_stdout/max_errors_per_frame=20

[rendering]

quality/driver/driver_name="GLES2"
vram_compression/import_etc=true
vram_compression/import_etc2=false
quality/shadows/filter_mode.mobile=1
quality/reflections/texture_array_reflections=false
quality/reflections/high_quality_ggx=false
quality/filters/use_nearest_mipmap_filter=true
quality/filters/msaa=2
