[gd_resource type="StyleBoxFlat" format=2]

[resource]
bg_color = Color( 0.243137, 0.443137, 0.231373, 1 )
border_width_left = 4
border_width_top = 4
border_width_right = 4
border_width_bottom = 10
border_color = Color( 0.152941, 0.219608, 0.14902, 1 )
corner_radius_top_left = 10
corner_radius_top_right = 10
corner_radius_bottom_right = 10
corner_radius_bottom_left = 10
