[gd_resource type="StyleBoxFlat" format=2]

[resource]
bg_color = Color( 0.827451, 0.65098, 0.176471, 1 )
border_width_left = 4
border_width_top = 4
border_width_right = 4
border_width_bottom = 10
border_color = Color( 0.415686, 0.32549, 0.0862745, 1 )
corner_radius_top_left = 10
corner_radius_top_right = 10
corner_radius_bottom_right = 10
corner_radius_bottom_left = 10
