[gd_scene load_steps=3 format=2]

[ext_resource path="res://assets/models/TowerStone.material" type="Material" id=1]

[sub_resource type="ArrayMesh" id=1]
resource_name = "Cylinder.040"
surfaces/0 = {
"aabb": AABB( -0.465, 0, -0.465, 0.93, 0.94348, 0.93 ),
"array_data": PoolByteArray( 184, 195, 135, 190, 128, 33, 75, 63, 181, 195, 135, 190, 0, 127, 0, 0, 127, 0, 0, 127, 35, 45, 164, 56, 102, 102, 230, 190, 128, 33, 75, 63, 0, 0, 0, 128, 0, 127, 0, 0, 127, 0, 0, 127, 30, 33, 0, 58, 0, 0, 192, 190, 128, 33, 75, 63, 0, 0, 0, 128, 0, 127, 0, 0, 127, 0, 0, 127, 30, 33, 0, 58, 0, 0, 0, 0, 128, 33, 75, 63, 102, 102, 230, 62, 129, 0, 0, 0, 127, 0, 0, 127, 0, 52, 235, 59, 0, 0, 0, 0, 228, 135, 113, 63, 0, 0, 192, 62, 129, 0, 0, 0, 127, 0, 0, 127, 0, 52, 235, 59, 0, 0, 0, 0, 128, 33, 75, 63, 0, 0, 192, 62, 129, 0, 0, 0, 127, 0, 0, 127, 0, 52, 235, 59, 61, 74, 140, 190, 76, 238, 23, 63, 58, 74, 140, 62, 0, 129, 0, 0, 127, 0, 0, 127, 0, 54, 102, 42, 123, 20, 238, 190, 76, 238, 23, 63, 0, 0, 0, 128, 0, 129, 0, 0, 127, 0, 0, 127, 0, 52, 102, 42, 102, 102, 198, 190, 76, 238, 23, 63, 0, 0, 0, 128, 0, 129, 0, 0, 127, 0, 0, 127, 0, 52, 102, 42, 0, 0, 192, 190, 128, 33, 75, 63, 0, 0, 0, 128, 117, 0, 208, 0, 127, 0, 0, 127, 30, 33, 0, 58, 184, 195, 135, 190, 228, 135, 113, 63, 181, 195, 135, 62, 117, 0, 208, 0, 127, 0, 0, 127, 35, 45, 91, 59, 184, 195, 135, 190, 128, 33, 75, 63, 181, 195, 135, 62, 117, 0, 208, 0, 127, 0, 0, 127, 35, 45, 91, 59, 61, 74, 140, 190, 76, 238, 23, 63, 61, 74, 140, 190, 0, 129, 0, 0, 127, 0, 0, 127, 0, 48, 102, 42, 23, 89, 168, 190, 76, 238, 23, 63, 20, 89, 168, 190, 0, 129, 0, 0, 127, 0, 0, 127, 0, 48, 102, 42, 61, 74, 140, 190, 76, 238, 23, 63, 61, 74, 140, 190, 0, 129, 0, 0, 127, 0, 0, 127, 0, 48, 102, 42, 0, 0, 0, 0, 76, 238, 23, 63, 123, 20, 238, 190, 0, 129, 0, 0, 127, 0, 0, 127, 0, 0, 102, 42, 0, 0, 0, 0, 76, 238, 23, 63, 102, 102, 198, 190, 0, 129, 0, 0, 127, 0, 0, 127, 0, 0, 102, 42, 181, 195, 135, 62, 128, 33, 75, 63, 181, 195, 135, 62, 208, 0, 139, 0, 127, 0, 0, 127, 183, 54, 91, 59, 0, 0, 0, 0, 109, 140, 7, 63, 0, 0, 192, 62, 208, 0, 139, 0, 127, 0, 0, 127, 0, 52, 235, 59, 0, 0, 0, 0, 128, 33, 75, 63, 0, 0, 192, 62, 208, 0, 139, 0, 127, 0, 0, 127, 0, 52, 235, 59, 181, 195, 135, 62, 128, 33, 75, 63, 181, 195, 135, 62, 89, 0, 167, 0, 127, 0, 0, 127, 183, 54, 91, 59, 217, 234, 162, 62, 228, 135, 113, 63, 217, 234, 162, 62, 89, 0, 167, 0, 127, 0, 0, 127, 183, 54, 91, 59, 217, 234, 162, 62, 128, 33, 75, 63, 217, 234, 162, 62, 89, 0, 167, 0, 127, 0, 0, 127, 183, 54, 91, 59, 0, 0, 0, 0, 76, 238, 23, 63, 102, 102, 198, 190, 0, 129, 0, 0, 127, 0, 0, 127, 0, 60, 102, 42, 20, 89, 168, 62, 76, 238, 23, 63, 20, 89, 168, 190, 0, 129, 0, 0, 127, 0, 0, 127, 0, 59, 102, 42, 61, 74, 140, 62, 76, 238, 23, 63, 61, 74, 140, 190, 0, 129, 0, 0, 127, 0, 0, 127, 0, 59, 102, 42, 61, 74, 140, 190, 76, 238, 23, 63, 61, 74, 140, 190, 208, 7, 139, 0, 139, 0, 48, 127, 0, 48, 102, 42, 0, 0, 0, 0, 248, 107, 242, 62, 113, 61, 202, 190, 208, 7, 139, 0, 139, 0, 48, 127, 0, 0, 30, 45, 90, 1, 143, 190, 245, 107, 242, 62, 87, 1, 143, 190, 208, 7, 139, 0, 139, 0, 48, 127, 0, 48, 30, 45, 102, 102, 198, 190, 76, 238, 23, 63, 0, 0, 0, 128, 139, 7, 208, 0, 208, 0, 117, 127, 0, 52, 102, 42, 90, 1, 143, 190, 245, 107, 242, 62, 87, 1, 143, 190, 139, 7, 208, 0, 208, 0, 117, 127, 0, 48, 30, 45, 113, 61, 202, 190, 245, 107, 242, 62, 0, 0, 0, 128, 139, 7, 208, 0, 208, 0, 117, 127, 0, 52, 30, 45, 61, 74, 140, 190, 76, 238, 23, 63, 58, 74, 140, 62, 139, 7, 48, 0, 48, 0, 117, 127, 0, 54, 102, 42, 113, 61, 202, 190, 245, 107, 242, 62, 0, 0, 0, 128, 139, 7, 48, 0, 48, 0, 117, 127, 0, 52, 30, 45, 90, 1, 143, 190, 245, 107, 242, 62, 87, 1, 143, 62, 139, 7, 48, 0, 48, 0, 117, 127, 0, 54, 30, 45, 0, 0, 0, 0, 76, 238, 23, 63, 102, 102, 198, 62, 208, 7, 117, 0, 117, 0, 48, 127, 0, 56, 102, 42, 90, 1, 143, 190, 245, 107, 242, 62, 87, 1, 143, 62, 208, 7, 117, 0, 117, 0, 48, 127, 0, 54, 30, 45, 0, 0, 0, 0, 245, 107, 242, 62, 113, 61, 202, 62, 208, 7, 117, 0, 117, 0, 48, 127, 0, 56, 30, 45, 61, 74, 140, 62, 76, 238, 23, 63, 61, 74, 140, 62, 48, 7, 117, 0, 117, 0, 208, 127, 0, 57, 102, 42, 0, 0, 0, 0, 245, 107, 242, 62, 113, 61, 202, 62, 48, 7, 117, 0, 117, 0, 208, 127, 0, 56, 30, 45, 87, 1, 143, 62, 245, 107, 242, 62, 87, 1, 143, 62, 48, 7, 117, 0, 117, 0, 208, 127, 0, 57, 30, 45, 102, 102, 198, 62, 76, 238, 23, 63, 0, 0, 0, 128, 117, 7, 48, 0, 48, 0, 139, 127, 0, 58, 102, 42, 87, 1, 143, 62, 245, 107, 242, 62, 87, 1, 143, 62, 117, 7, 48, 0, 48, 0, 139, 127, 0, 57, 30, 45, 113, 61, 202, 62, 245, 107, 242, 62, 0, 0, 0, 128, 117, 7, 48, 0, 48, 0, 139, 127, 0, 58, 30, 45, 61, 74, 140, 62, 76, 238, 23, 63, 61, 74, 140, 190, 117, 7, 208, 0, 208, 0, 139, 127, 0, 59, 102, 42, 113, 61, 202, 62, 245, 107, 242, 62, 0, 0, 0, 128, 117, 7, 208, 0, 208, 0, 139, 127, 0, 58, 30, 45, 87, 1, 143, 62, 245, 107, 242, 62, 87, 1, 143, 190, 117, 7, 208, 0, 208, 0, 139, 127, 0, 59, 30, 45, 0, 0, 0, 0, 248, 107, 242, 62, 113, 61, 202, 190, 48, 7, 139, 0, 139, 0, 208, 127, 0, 60, 30, 45, 61, 74, 140, 62, 76, 238, 23, 63, 61, 74, 140, 190, 48, 7, 139, 0, 139, 0, 208, 127, 0, 59, 102, 42, 87, 1, 143, 62, 245, 107, 242, 62, 87, 1, 143, 190, 48, 7, 139, 0, 139, 0, 208, 127, 0, 59, 30, 45, 0, 0, 0, 0, 128, 33, 75, 63, 102, 102, 230, 190, 48, 8, 139, 0, 139, 0, 208, 127, 0, 60, 0, 0, 20, 89, 168, 62, 76, 238, 23, 63, 20, 89, 168, 190, 48, 8, 139, 0, 139, 0, 208, 127, 0, 59, 102, 42, 0, 0, 0, 0, 76, 238, 23, 63, 123, 20, 238, 190, 48, 8, 139, 0, 139, 0, 208, 127, 0, 60, 102, 42, 217, 234, 162, 62, 128, 33, 75, 63, 217, 234, 162, 190, 117, 8, 208, 0, 208, 0, 139, 127, 0, 59, 0, 0, 123, 20, 238, 62, 76, 238, 23, 63, 0, 0, 0, 128, 117, 8, 208, 0, 208, 0, 139, 127, 0, 58, 102, 42, 20, 89, 168, 62, 76, 238, 23, 63, 20, 89, 168, 190, 117, 8, 208, 0, 208, 0, 139, 127, 0, 59, 102, 42, 102, 102, 230, 62, 128, 33, 75, 63, 0, 0, 0, 128, 117, 8, 48, 0, 48, 0, 139, 127, 0, 58, 0, 0, 20, 89, 168, 62, 76, 238, 23, 63, 20, 89, 168, 62, 117, 8, 48, 0, 48, 0, 139, 127, 0, 57, 102, 42, 123, 20, 238, 62, 76, 238, 23, 63, 0, 0, 0, 128, 117, 8, 48, 0, 48, 0, 139, 127, 0, 58, 102, 42, 217, 234, 162, 62, 128, 33, 75, 63, 217, 234, 162, 62, 48, 8, 117, 0, 117, 0, 208, 127, 0, 57, 0, 0, 0, 0, 0, 0, 76, 238, 23, 63, 123, 20, 238, 62, 48, 8, 117, 0, 117, 0, 208, 127, 0, 56, 102, 42, 20, 89, 168, 62, 76, 238, 23, 63, 20, 89, 168, 62, 48, 8, 117, 0, 117, 0, 208, 127, 0, 57, 102, 42, 0, 0, 0, 0, 76, 238, 23, 63, 123, 20, 238, 62, 208, 8, 117, 0, 117, 0, 48, 127, 0, 56, 102, 42, 221, 234, 162, 190, 128, 33, 75, 63, 217, 234, 162, 62, 208, 8, 117, 0, 117, 0, 48, 127, 0, 54, 0, 0, 23, 89, 168, 190, 76, 238, 23, 63, 20, 89, 168, 62, 208, 8, 117, 0, 117, 0, 48, 127, 0, 54, 102, 42, 23, 89, 168, 190, 76, 238, 23, 63, 20, 89, 168, 62, 139, 8, 48, 0, 48, 0, 117, 127, 0, 54, 102, 42, 102, 102, 230, 190, 128, 33, 75, 63, 0, 0, 0, 128, 139, 8, 48, 0, 48, 0, 117, 127, 0, 52, 0, 0, 123, 20, 238, 190, 76, 238, 23, 63, 0, 0, 0, 128, 139, 8, 48, 0, 48, 0, 117, 127, 0, 52, 102, 42, 102, 102, 230, 190, 128, 33, 75, 63, 0, 0, 0, 128, 139, 8, 208, 0, 208, 0, 117, 127, 0, 52, 0, 0, 23, 89, 168, 190, 76, 238, 23, 63, 20, 89, 168, 190, 139, 8, 208, 0, 208, 0, 117, 127, 0, 48, 102, 42, 123, 20, 238, 190, 76, 238, 23, 63, 0, 0, 0, 128, 139, 8, 208, 0, 208, 0, 117, 127, 0, 52, 102, 42, 221, 234, 162, 190, 128, 33, 75, 63, 217, 234, 162, 190, 208, 8, 139, 0, 139, 0, 48, 127, 0, 48, 0, 0, 0, 0, 0, 0, 76, 238, 23, 63, 123, 20, 238, 190, 208, 8, 139, 0, 139, 0, 48, 127, 0, 0, 102, 42, 23, 89, 168, 190, 76, 238, 23, 63, 20, 89, 168, 190, 208, 8, 139, 0, 139, 0, 48, 127, 0, 48, 102, 42, 0, 0, 0, 0, 76, 238, 23, 63, 123, 20, 238, 62, 0, 129, 0, 0, 127, 0, 0, 127, 0, 56, 102, 42, 23, 89, 168, 190, 76, 238, 23, 63, 20, 89, 168, 62, 0, 129, 0, 0, 127, 0, 0, 127, 0, 54, 102, 42, 61, 74, 140, 62, 76, 238, 23, 63, 61, 74, 140, 62, 0, 129, 0, 0, 127, 0, 0, 127, 0, 57, 102, 42, 0, 0, 0, 0, 76, 238, 23, 63, 123, 20, 238, 62, 0, 129, 0, 0, 127, 0, 0, 127, 0, 56, 102, 42, 0, 0, 0, 0, 76, 238, 23, 63, 102, 102, 198, 62, 0, 129, 0, 0, 127, 0, 0, 127, 0, 56, 102, 42, 184, 195, 135, 190, 128, 33, 75, 63, 181, 195, 135, 62, 0, 127, 0, 0, 127, 0, 0, 127, 35, 45, 91, 59, 0, 0, 0, 0, 128, 33, 75, 63, 102, 102, 230, 62, 0, 127, 0, 0, 127, 0, 0, 127, 0, 52, 235, 59, 0, 0, 0, 0, 128, 33, 75, 63, 0, 0, 192, 62, 0, 127, 0, 0, 127, 0, 0, 127, 0, 52, 235, 59, 102, 102, 198, 62, 76, 238, 23, 63, 0, 0, 0, 128, 0, 129, 0, 0, 127, 0, 0, 127, 0, 58, 102, 42, 20, 89, 168, 62, 76, 238, 23, 63, 20, 89, 168, 62, 0, 129, 0, 0, 127, 0, 0, 127, 0, 57, 102, 42, 61, 74, 140, 62, 76, 238, 23, 63, 61, 74, 140, 62, 0, 129, 0, 0, 127, 0, 0, 127, 0, 57, 102, 42, 0, 0, 192, 62, 128, 33, 75, 63, 0, 0, 0, 128, 0, 127, 0, 0, 127, 0, 0, 127, 215, 55, 0, 58, 217, 234, 162, 62, 128, 33, 75, 63, 217, 234, 162, 62, 0, 127, 0, 0, 127, 0, 0, 127, 183, 54, 91, 59, 102, 102, 230, 62, 128, 33, 75, 63, 0, 0, 0, 128, 0, 127, 0, 0, 127, 0, 0, 127, 215, 55, 0, 58, 221, 234, 162, 190, 128, 33, 75, 63, 217, 234, 162, 62, 139, 0, 48, 0, 127, 0, 0, 129, 0, 54, 0, 0, 102, 102, 230, 190, 228, 135, 113, 63, 0, 0, 0, 128, 139, 0, 48, 0, 127, 0, 0, 129, 0, 52, 0, 0, 102, 102, 230, 190, 128, 33, 75, 63, 0, 0, 0, 128, 139, 0, 48, 0, 127, 0, 0, 129, 0, 52, 0, 0, 61, 74, 140, 62, 76, 238, 23, 63, 61, 74, 140, 190, 0, 129, 0, 0, 127, 0, 0, 127, 0, 59, 102, 42, 123, 20, 238, 62, 76, 238, 23, 63, 0, 0, 0, 128, 0, 129, 0, 0, 127, 0, 0, 127, 0, 58, 102, 42, 102, 102, 198, 62, 76, 238, 23, 63, 0, 0, 0, 128, 0, 129, 0, 0, 127, 0, 0, 127, 0, 58, 102, 42, 0, 0, 0, 0, 128, 33, 75, 63, 0, 0, 192, 190, 0, 127, 0, 0, 127, 0, 0, 127, 0, 52, 20, 56, 217, 234, 162, 62, 128, 33, 75, 63, 217, 234, 162, 190, 0, 127, 0, 0, 127, 0, 0, 127, 183, 54, 164, 56, 0, 0, 0, 0, 128, 33, 75, 63, 102, 102, 230, 190, 0, 127, 0, 0, 127, 0, 0, 127, 0, 52, 20, 56, 0, 0, 192, 62, 228, 135, 113, 63, 0, 0, 0, 128, 0, 127, 0, 0, 127, 0, 0, 127, 215, 55, 0, 58, 217, 234, 162, 62, 228, 135, 113, 63, 217, 234, 162, 190, 0, 127, 0, 0, 127, 0, 0, 127, 183, 54, 164, 56, 181, 195, 135, 62, 228, 135, 113, 63, 181, 195, 135, 190, 0, 127, 0, 0, 127, 0, 0, 127, 183, 54, 164, 56, 0, 0, 0, 0, 228, 135, 113, 63, 0, 0, 192, 62, 0, 127, 0, 0, 127, 0, 0, 127, 0, 52, 235, 59, 217, 234, 162, 62, 228, 135, 113, 63, 217, 234, 162, 62, 0, 127, 0, 0, 127, 0, 0, 127, 183, 54, 91, 59, 181, 195, 135, 62, 228, 135, 113, 63, 181, 195, 135, 62, 0, 127, 0, 0, 127, 0, 0, 127, 183, 54, 91, 59, 184, 195, 135, 190, 228, 135, 113, 63, 181, 195, 135, 62, 0, 127, 0, 0, 127, 0, 0, 127, 35, 45, 91, 59, 102, 102, 230, 190, 228, 135, 113, 63, 0, 0, 0, 128, 0, 127, 0, 0, 127, 0, 0, 127, 30, 33, 0, 58, 221, 234, 162, 190, 228, 135, 113, 63, 217, 234, 162, 62, 0, 127, 0, 0, 127, 0, 0, 127, 35, 45, 91, 59, 0, 0, 0, 0, 228, 135, 113, 63, 0, 0, 192, 190, 0, 127, 0, 0, 127, 0, 0, 127, 0, 52, 20, 56, 221, 234, 162, 190, 228, 135, 113, 63, 217, 234, 162, 190, 0, 127, 0, 0, 127, 0, 0, 127, 35, 45, 164, 56, 184, 195, 135, 190, 228, 135, 113, 63, 181, 195, 135, 190, 0, 127, 0, 0, 127, 0, 0, 127, 35, 45, 164, 56, 0, 0, 0, 0, 128, 33, 75, 63, 0, 0, 192, 62, 208, 0, 139, 0, 127, 0, 0, 127, 0, 52, 235, 59, 181, 195, 135, 62, 228, 135, 113, 63, 181, 195, 135, 62, 208, 0, 139, 0, 127, 0, 0, 127, 183, 54, 91, 59, 181, 195, 135, 62, 128, 33, 75, 63, 181, 195, 135, 62, 208, 0, 139, 0, 127, 0, 0, 127, 183, 54, 91, 59, 221, 234, 162, 190, 128, 33, 75, 63, 217, 234, 162, 190, 208, 0, 139, 0, 127, 0, 0, 127, 0, 48, 0, 0, 0, 0, 0, 0, 228, 135, 113, 63, 102, 102, 230, 190, 208, 0, 139, 0, 127, 0, 0, 127, 0, 0, 0, 0, 0, 0, 0, 0, 128, 33, 75, 63, 102, 102, 230, 190, 208, 0, 139, 0, 127, 0, 0, 127, 0, 0, 0, 0, 0, 0, 0, 0, 128, 33, 75, 63, 102, 102, 230, 190, 127, 0, 0, 0, 127, 0, 0, 127, 0, 52, 20, 56, 0, 0, 0, 0, 228, 135, 113, 63, 0, 0, 192, 190, 127, 0, 0, 0, 127, 0, 0, 127, 0, 52, 20, 56, 0, 0, 0, 0, 128, 33, 75, 63, 0, 0, 192, 190, 127, 0, 0, 0, 127, 0, 0, 127, 0, 52, 20, 56, 0, 0, 192, 62, 128, 33, 75, 63, 0, 0, 0, 128, 139, 0, 48, 0, 127, 0, 0, 129, 215, 55, 0, 58, 181, 195, 135, 62, 228, 135, 113, 63, 181, 195, 135, 190, 139, 0, 48, 0, 127, 0, 0, 129, 183, 54, 164, 56, 181, 195, 135, 62, 128, 33, 75, 63, 181, 195, 135, 190, 139, 0, 48, 0, 127, 0, 0, 129, 183, 54, 164, 56, 217, 234, 162, 62, 128, 33, 75, 63, 217, 234, 162, 190, 117, 0, 208, 0, 127, 0, 0, 127, 0, 59, 0, 0, 102, 102, 230, 62, 228, 135, 113, 63, 0, 0, 0, 128, 117, 0, 208, 0, 127, 0, 0, 127, 0, 58, 0, 0, 102, 102, 230, 62, 128, 33, 75, 63, 0, 0, 0, 128, 117, 0, 208, 0, 127, 0, 0, 127, 0, 58, 0, 0, 184, 195, 135, 190, 128, 33, 75, 63, 181, 195, 135, 62, 89, 0, 89, 0, 127, 0, 0, 129, 35, 45, 91, 59, 221, 234, 162, 190, 228, 135, 113, 63, 217, 234, 162, 62, 89, 0, 89, 0, 127, 0, 0, 129, 35, 45, 91, 59, 221, 234, 162, 190, 128, 33, 75, 63, 217, 234, 162, 62, 89, 0, 89, 0, 127, 0, 0, 129, 35, 45, 91, 59, 102, 102, 230, 62, 128, 33, 75, 63, 0, 0, 0, 128, 0, 0, 127, 0, 127, 0, 0, 129, 215, 55, 0, 58, 0, 0, 192, 62, 228, 135, 113, 63, 0, 0, 0, 128, 0, 0, 127, 0, 127, 0, 0, 129, 215, 55, 0, 58, 0, 0, 192, 62, 128, 33, 75, 63, 0, 0, 0, 128, 0, 0, 127, 0, 127, 0, 0, 129, 215, 55, 0, 58, 181, 195, 135, 62, 128, 33, 75, 63, 181, 195, 135, 190, 167, 0, 167, 0, 127, 0, 0, 127, 183, 54, 164, 56, 217, 234, 162, 62, 228, 135, 113, 63, 217, 234, 162, 190, 167, 0, 167, 0, 127, 0, 0, 127, 183, 54, 164, 56, 217, 234, 162, 62, 128, 33, 75, 63, 217, 234, 162, 190, 167, 0, 167, 0, 127, 0, 0, 127, 183, 54, 164, 56, 102, 102, 230, 190, 128, 33, 75, 63, 0, 0, 0, 128, 0, 0, 129, 0, 127, 0, 0, 127, 30, 33, 0, 58, 0, 0, 192, 190, 228, 135, 113, 63, 0, 0, 0, 128, 0, 0, 129, 0, 127, 0, 0, 127, 30, 33, 0, 58, 0, 0, 192, 190, 128, 33, 75, 63, 0, 0, 0, 128, 0, 0, 129, 0, 127, 0, 0, 127, 30, 33, 0, 58, 217, 234, 162, 62, 128, 33, 75, 63, 217, 234, 162, 62, 48, 0, 117, 0, 127, 0, 0, 129, 0, 57, 0, 0, 0, 0, 0, 0, 228, 135, 113, 63, 102, 102, 230, 62, 48, 0, 117, 0, 127, 0, 0, 129, 0, 56, 0, 0, 0, 0, 0, 0, 128, 33, 75, 63, 102, 102, 230, 62, 48, 0, 117, 0, 127, 0, 0, 129, 0, 56, 0, 0, 184, 195, 135, 190, 128, 33, 75, 63, 181, 195, 135, 190, 167, 0, 89, 0, 127, 0, 0, 129, 35, 45, 164, 56, 221, 234, 162, 190, 228, 135, 113, 63, 217, 234, 162, 190, 167, 0, 89, 0, 127, 0, 0, 129, 35, 45, 164, 56, 221, 234, 162, 190, 128, 33, 75, 63, 217, 234, 162, 190, 167, 0, 89, 0, 127, 0, 0, 129, 35, 45, 164, 56, 0, 0, 0, 0, 128, 33, 75, 63, 0, 0, 192, 190, 48, 0, 117, 0, 127, 0, 0, 129, 0, 52, 20, 56, 184, 195, 135, 190, 228, 135, 113, 63, 181, 195, 135, 190, 48, 0, 117, 0, 127, 0, 0, 129, 35, 45, 164, 56, 184, 195, 135, 190, 128, 33, 75, 63, 181, 195, 135, 190, 48, 0, 117, 0, 127, 0, 0, 129, 35, 45, 164, 56, 0, 0, 0, 0, 0, 0, 0, 0, 48, 100, 217, 190, 48, 7, 139, 0, 139, 0, 208, 127, 0, 60, 89, 50, 243, 142, 151, 62, 247, 138, 195, 61, 243, 142, 151, 190, 48, 7, 139, 0, 139, 0, 208, 127, 0, 59, 149, 49, 9, 184, 153, 62, 0, 0, 0, 0, 9, 184, 153, 190, 48, 7, 139, 0, 139, 0, 208, 127, 0, 59, 89, 50, 0, 0, 0, 0, 255, 138, 195, 61, 4, 86, 214, 190, 48, 7, 139, 0, 139, 0, 208, 127, 0, 60, 149, 49, 87, 1, 143, 62, 245, 107, 242, 62, 87, 1, 143, 190, 48, 7, 139, 0, 139, 0, 208, 127, 0, 59, 30, 45, 243, 142, 151, 62, 247, 138, 195, 61, 243, 142, 151, 190, 48, 7, 139, 0, 139, 0, 208, 127, 0, 59, 149, 49, 243, 142, 151, 62, 247, 138, 195, 61, 243, 142, 151, 190, 117, 7, 208, 0, 208, 0, 139, 127, 0, 59, 149, 49, 45, 100, 217, 62, 0, 0, 0, 0, 0, 0, 0, 128, 117, 7, 208, 0, 208, 0, 139, 127, 0, 58, 89, 50, 9, 184, 153, 62, 0, 0, 0, 0, 9, 184, 153, 190, 117, 7, 208, 0, 208, 0, 139, 127, 0, 59, 89, 50, 87, 1, 143, 62, 245, 107, 242, 62, 87, 1, 143, 190, 117, 7, 208, 0, 208, 0, 139, 127, 0, 59, 30, 45, 1, 86, 214, 62, 247, 138, 195, 61, 0, 0, 0, 128, 117, 7, 208, 0, 208, 0, 139, 127, 0, 58, 149, 49, 243, 142, 151, 62, 247, 138, 195, 61, 243, 142, 151, 190, 117, 7, 208, 0, 208, 0, 139, 127, 0, 59, 149, 49, 1, 86, 214, 62, 247, 138, 195, 61, 0, 0, 0, 128, 117, 7, 48, 0, 48, 0, 139, 127, 0, 58, 149, 49, 9, 184, 153, 62, 0, 0, 0, 0, 9, 184, 153, 62, 117, 7, 48, 0, 48, 0, 139, 127, 0, 57, 89, 50, 45, 100, 217, 62, 0, 0, 0, 0, 0, 0, 0, 128, 117, 7, 48, 0, 48, 0, 139, 127, 0, 58, 89, 50, 113, 61, 202, 62, 245, 107, 242, 62, 0, 0, 0, 128, 117, 7, 48, 0, 48, 0, 139, 127, 0, 58, 30, 45, 243, 142, 151, 62, 247, 138, 195, 61, 243, 142, 151, 62, 117, 7, 48, 0, 48, 0, 139, 127, 0, 57, 149, 49, 1, 86, 214, 62, 247, 138, 195, 61, 0, 0, 0, 128, 117, 7, 48, 0, 48, 0, 139, 127, 0, 58, 149, 49, 243, 142, 151, 62, 247, 138, 195, 61, 243, 142, 151, 62, 48, 7, 117, 0, 117, 0, 208, 127, 0, 57, 149, 49, 0, 0, 0, 0, 0, 0, 0, 0, 45, 100, 217, 62, 48, 7, 117, 0, 117, 0, 208, 127, 0, 56, 89, 50, 9, 184, 153, 62, 0, 0, 0, 0, 9, 184, 153, 62, 48, 7, 117, 0, 117, 0, 208, 127, 0, 57, 89, 50, 87, 1, 143, 62, 245, 107, 242, 62, 87, 1, 143, 62, 48, 7, 117, 0, 117, 0, 208, 127, 0, 57, 30, 45, 0, 0, 0, 0, 247, 138, 195, 61, 1, 86, 214, 62, 48, 7, 117, 0, 117, 0, 208, 127, 0, 56, 149, 49, 243, 142, 151, 62, 247, 138, 195, 61, 243, 142, 151, 62, 48, 7, 117, 0, 117, 0, 208, 127, 0, 57, 149, 49, 0, 0, 0, 0, 247, 138, 195, 61, 1, 86, 214, 62, 208, 7, 117, 0, 117, 0, 48, 127, 0, 56, 149, 49, 9, 184, 153, 190, 0, 0, 0, 0, 9, 184, 153, 62, 208, 7, 117, 0, 117, 0, 48, 127, 0, 54, 89, 50, 0, 0, 0, 0, 0, 0, 0, 0, 45, 100, 217, 62, 208, 7, 117, 0, 117, 0, 48, 127, 0, 56, 89, 50, 0, 0, 0, 0, 245, 107, 242, 62, 113, 61, 202, 62, 208, 7, 117, 0, 117, 0, 48, 127, 0, 56, 30, 45, 247, 142, 151, 190, 247, 138, 195, 61, 243, 142, 151, 62, 208, 7, 117, 0, 117, 0, 48, 127, 0, 54, 149, 49, 0, 0, 0, 0, 247, 138, 195, 61, 1, 86, 214, 62, 208, 7, 117, 0, 117, 0, 48, 127, 0, 56, 149, 49, 247, 142, 151, 190, 247, 138, 195, 61, 243, 142, 151, 62, 139, 7, 48, 0, 48, 0, 117, 127, 0, 54, 149, 49, 45, 100, 217, 190, 0, 0, 0, 0, 0, 0, 0, 128, 139, 7, 48, 0, 48, 0, 117, 127, 0, 52, 89, 50, 9, 184, 153, 190, 0, 0, 0, 0, 9, 184, 153, 62, 139, 7, 48, 0, 48, 0, 117, 127, 0, 54, 89, 50, 90, 1, 143, 190, 245, 107, 242, 62, 87, 1, 143, 62, 0, 129, 0, 0, 127, 0, 0, 127, 0, 54, 30, 45, 8, 95, 211, 61, 248, 107, 242, 62, 0, 0, 0, 128, 0, 129, 0, 0, 127, 0, 0, 127, 0, 52, 30, 45, 224, 94, 211, 61, 248, 107, 242, 62, 87, 1, 143, 62, 0, 129, 0, 0, 127, 0, 0, 127, 0, 54, 30, 45, 1, 86, 214, 190, 247, 138, 195, 61, 0, 0, 0, 128, 139, 7, 208, 0, 208, 0, 117, 127, 0, 52, 149, 49, 9, 184, 153, 190, 0, 0, 0, 0, 9, 184, 153, 190, 139, 7, 208, 0, 208, 0, 117, 127, 0, 48, 89, 50, 45, 100, 217, 190, 0, 0, 0, 0, 0, 0, 0, 128, 139, 7, 208, 0, 208, 0, 117, 127, 0, 52, 89, 50, 90, 1, 143, 190, 245, 107, 242, 62, 87, 1, 143, 190, 0, 129, 0, 0, 127, 0, 0, 127, 0, 48, 30, 45, 113, 61, 202, 190, 245, 107, 242, 62, 0, 0, 0, 128, 0, 129, 0, 0, 127, 0, 0, 127, 0, 52, 30, 45, 247, 142, 151, 190, 247, 138, 195, 61, 243, 142, 151, 190, 208, 7, 139, 0, 139, 0, 48, 127, 0, 48, 149, 49, 0, 0, 0, 0, 0, 0, 0, 0, 48, 100, 217, 190, 208, 7, 139, 0, 139, 0, 48, 127, 0, 0, 89, 50, 9, 184, 153, 190, 0, 0, 0, 0, 9, 184, 153, 190, 208, 7, 139, 0, 139, 0, 48, 127, 0, 48, 89, 50, 90, 1, 143, 190, 245, 107, 242, 62, 87, 1, 143, 190, 208, 7, 139, 0, 139, 0, 48, 127, 0, 48, 30, 45, 0, 0, 0, 0, 255, 138, 195, 61, 4, 86, 214, 190, 208, 7, 139, 0, 139, 0, 48, 127, 0, 0, 149, 49, 247, 142, 151, 190, 247, 138, 195, 61, 243, 142, 151, 190, 208, 7, 139, 0, 139, 0, 48, 127, 0, 48, 149, 49, 224, 94, 211, 61, 248, 107, 242, 62, 87, 1, 143, 62, 129, 0, 0, 0, 0, 0, 127, 127, 0, 54, 30, 45, 250, 94, 211, 61, 255, 138, 195, 61, 0, 0, 0, 128, 129, 0, 0, 0, 0, 0, 127, 127, 0, 52, 149, 49, 237, 94, 211, 61, 255, 138, 195, 61, 243, 142, 151, 62, 129, 0, 0, 0, 0, 0, 126, 127, 0, 54, 149, 49, 250, 94, 211, 61, 255, 138, 195, 61, 0, 0, 0, 128, 129, 0, 0, 0, 0, 0, 127, 127, 0, 52, 149, 49, 224, 94, 211, 61, 248, 107, 242, 62, 87, 1, 143, 190, 129, 0, 0, 0, 0, 0, 127, 127, 0, 48, 30, 45, 237, 94, 211, 61, 255, 138, 195, 61, 243, 142, 151, 190, 129, 0, 0, 0, 0, 0, 126, 127, 0, 48, 149, 49, 247, 142, 151, 190, 247, 138, 195, 61, 243, 142, 151, 190, 0, 127, 0, 0, 127, 0, 0, 127, 0, 48, 149, 49, 250, 94, 211, 61, 255, 138, 195, 61, 0, 0, 0, 128, 0, 127, 0, 0, 127, 0, 0, 127, 0, 52, 149, 49, 237, 94, 211, 61, 255, 138, 195, 61, 243, 142, 151, 190, 0, 127, 0, 0, 127, 0, 0, 127, 0, 48, 149, 49, 247, 142, 151, 190, 247, 138, 195, 61, 243, 142, 151, 62, 0, 127, 0, 0, 127, 0, 0, 127, 0, 54, 149, 49, 1, 86, 214, 190, 247, 138, 195, 61, 0, 0, 0, 128, 0, 127, 0, 0, 127, 0, 0, 127, 0, 52, 149, 49, 90, 1, 143, 190, 245, 107, 242, 62, 87, 1, 143, 190, 0, 251, 126, 0, 127, 0, 0, 129, 0, 48, 30, 45, 237, 94, 211, 61, 255, 138, 195, 61, 243, 142, 151, 190, 0, 251, 126, 0, 127, 0, 0, 129, 0, 48, 149, 49, 224, 94, 211, 61, 248, 107, 242, 62, 87, 1, 143, 190, 0, 251, 126, 0, 127, 0, 0, 129, 0, 48, 30, 45, 90, 1, 143, 190, 245, 107, 242, 62, 87, 1, 143, 62, 0, 251, 130, 0, 127, 0, 0, 127, 0, 54, 30, 45, 237, 94, 211, 61, 255, 138, 195, 61, 243, 142, 151, 62, 0, 251, 130, 0, 127, 0, 0, 127, 0, 54, 149, 49, 247, 142, 151, 190, 247, 138, 195, 61, 243, 142, 151, 62, 0, 251, 130, 0, 127, 0, 0, 127, 0, 54, 149, 49, 0, 0, 192, 62, 109, 140, 7, 63, 0, 0, 0, 128, 0, 127, 0, 0, 127, 0, 0, 127, 215, 55, 0, 58, 0, 0, 0, 0, 109, 140, 7, 63, 0, 0, 192, 190, 0, 127, 0, 0, 127, 0, 0, 127, 0, 52, 20, 56, 0, 0, 192, 190, 109, 140, 7, 63, 0, 0, 0, 128, 0, 127, 0, 0, 127, 0, 0, 127, 30, 33, 0, 58, 0, 0, 192, 190, 128, 33, 75, 63, 0, 0, 0, 128, 117, 0, 48, 0, 127, 0, 0, 129, 30, 33, 0, 58, 184, 195, 135, 190, 109, 140, 7, 63, 181, 195, 135, 190, 117, 0, 48, 0, 127, 0, 0, 129, 35, 45, 164, 56, 184, 195, 135, 190, 128, 33, 75, 63, 181, 195, 135, 190, 117, 0, 48, 0, 127, 0, 0, 129, 35, 45, 164, 56, 181, 195, 135, 62, 128, 33, 75, 63, 181, 195, 135, 190, 139, 0, 48, 0, 127, 0, 0, 129, 183, 54, 164, 56, 0, 0, 192, 62, 109, 140, 7, 63, 0, 0, 0, 128, 139, 0, 48, 0, 127, 0, 0, 129, 215, 55, 0, 58, 0, 0, 192, 62, 128, 33, 75, 63, 0, 0, 0, 128, 139, 0, 48, 0, 127, 0, 0, 129, 215, 55, 0, 58, 0, 0, 0, 0, 128, 33, 75, 63, 0, 0, 192, 62, 48, 0, 139, 0, 127, 0, 0, 127, 0, 52, 235, 59, 184, 195, 135, 190, 109, 140, 7, 63, 181, 195, 135, 62, 48, 0, 139, 0, 127, 0, 0, 127, 35, 45, 91, 59, 184, 195, 135, 190, 128, 33, 75, 63, 181, 195, 135, 62, 48, 0, 139, 0, 127, 0, 0, 127, 35, 45, 91, 59, 184, 195, 135, 190, 128, 33, 75, 63, 181, 195, 135, 190, 48, 0, 117, 0, 127, 0, 0, 129, 35, 45, 164, 56, 0, 0, 0, 0, 109, 140, 7, 63, 0, 0, 192, 190, 48, 0, 117, 0, 127, 0, 0, 129, 0, 52, 20, 56, 0, 0, 0, 0, 128, 33, 75, 63, 0, 0, 192, 190, 48, 0, 117, 0, 127, 0, 0, 129, 0, 52, 20, 56, 0, 0, 0, 0, 128, 33, 75, 63, 0, 0, 192, 190, 208, 0, 117, 0, 127, 0, 0, 129, 0, 52, 20, 56, 181, 195, 135, 62, 109, 140, 7, 63, 181, 195, 135, 190, 208, 0, 117, 0, 127, 0, 0, 129, 183, 54, 164, 56, 181, 195, 135, 62, 128, 33, 75, 63, 181, 195, 135, 190, 208, 0, 117, 0, 127, 0, 0, 129, 183, 54, 164, 56, 0, 0, 192, 62, 128, 33, 75, 63, 0, 0, 0, 128, 139, 0, 208, 0, 127, 0, 0, 127, 215, 55, 0, 58, 181, 195, 135, 62, 109, 140, 7, 63, 181, 195, 135, 62, 139, 0, 208, 0, 127, 0, 0, 127, 183, 54, 91, 59, 181, 195, 135, 62, 128, 33, 75, 63, 181, 195, 135, 62, 139, 0, 208, 0, 127, 0, 0, 127, 183, 54, 91, 59, 184, 195, 135, 190, 128, 33, 75, 63, 181, 195, 135, 62, 117, 0, 208, 0, 127, 0, 0, 127, 35, 45, 91, 59, 0, 0, 192, 190, 109, 140, 7, 63, 0, 0, 0, 128, 117, 0, 208, 0, 127, 0, 0, 127, 30, 33, 0, 58, 0, 0, 192, 190, 128, 33, 75, 63, 0, 0, 0, 128, 117, 0, 208, 0, 127, 0, 0, 127, 30, 33, 0, 58, 45, 100, 217, 190, 0, 0, 0, 0, 0, 0, 0, 128, 0, 129, 0, 0, 117, 0, 48, 129, 0, 52, 89, 50, 0, 0, 0, 0, 0, 0, 0, 0, 48, 100, 217, 190, 0, 129, 0, 0, 89, 0, 167, 127, 0, 60, 89, 50, 45, 100, 217, 62, 0, 0, 0, 0, 0, 0, 0, 128, 0, 129, 0, 0, 117, 0, 48, 129, 0, 58, 89, 50, 184, 195, 135, 190, 128, 33, 75, 63, 181, 195, 135, 190, 0, 127, 0, 0, 127, 0, 0, 127, 35, 45, 164, 56, 221, 234, 162, 190, 128, 33, 75, 63, 217, 234, 162, 190, 0, 127, 0, 0, 127, 0, 0, 127, 35, 45, 164, 56, 102, 102, 230, 190, 128, 33, 75, 63, 0, 0, 0, 128, 0, 127, 0, 0, 127, 0, 0, 127, 30, 33, 0, 58, 0, 0, 0, 0, 228, 135, 113, 63, 102, 102, 230, 62, 129, 0, 0, 0, 127, 0, 0, 127, 0, 52, 235, 59, 0, 0, 192, 190, 128, 33, 75, 63, 0, 0, 0, 128, 117, 0, 208, 0, 127, 0, 0, 127, 30, 33, 0, 58, 0, 0, 192, 190, 228, 135, 113, 63, 0, 0, 0, 128, 117, 0, 208, 0, 127, 0, 0, 127, 30, 33, 0, 58, 184, 195, 135, 190, 228, 135, 113, 63, 181, 195, 135, 62, 117, 0, 208, 0, 127, 0, 0, 127, 35, 45, 91, 59, 0, 0, 0, 0, 76, 238, 23, 63, 123, 20, 238, 190, 0, 129, 0, 0, 127, 0, 0, 127, 0, 0, 102, 42, 181, 195, 135, 62, 109, 140, 7, 63, 181, 195, 135, 62, 208, 0, 139, 0, 127, 0, 0, 127, 183, 54, 91, 59, 0, 0, 0, 0, 109, 140, 7, 63, 0, 0, 192, 62, 208, 0, 139, 0, 127, 0, 0, 127, 0, 52, 235, 59, 181, 195, 135, 62, 128, 33, 75, 63, 181, 195, 135, 62, 89, 0, 167, 0, 127, 0, 0, 127, 183, 54, 91, 59, 181, 195, 135, 62, 228, 135, 113, 63, 181, 195, 135, 62, 89, 0, 167, 0, 127, 0, 0, 127, 183, 54, 91, 59, 217, 234, 162, 62, 228, 135, 113, 63, 217, 234, 162, 62, 89, 0, 167, 0, 127, 0, 0, 127, 183, 54, 91, 59, 0, 0, 0, 0, 76, 238, 23, 63, 102, 102, 198, 190, 0, 129, 0, 0, 127, 0, 0, 127, 0, 60, 102, 42, 0, 0, 0, 0, 76, 238, 23, 63, 123, 20, 238, 190, 0, 129, 0, 0, 127, 0, 0, 127, 0, 60, 102, 42, 20, 89, 168, 62, 76, 238, 23, 63, 20, 89, 168, 190, 0, 129, 0, 0, 127, 0, 0, 127, 0, 59, 102, 42, 61, 74, 140, 190, 76, 238, 23, 63, 61, 74, 140, 190, 208, 7, 139, 0, 139, 0, 48, 127, 0, 48, 102, 42, 0, 0, 0, 0, 76, 238, 23, 63, 102, 102, 198, 190, 208, 7, 139, 0, 139, 0, 48, 127, 0, 0, 102, 42, 0, 0, 0, 0, 248, 107, 242, 62, 113, 61, 202, 190, 208, 7, 139, 0, 139, 0, 48, 127, 0, 0, 30, 45, 102, 102, 198, 190, 76, 238, 23, 63, 0, 0, 0, 128, 139, 7, 208, 0, 208, 0, 117, 127, 0, 52, 102, 42, 61, 74, 140, 190, 76, 238, 23, 63, 61, 74, 140, 190, 139, 7, 208, 0, 208, 0, 117, 127, 0, 48, 102, 42, 90, 1, 143, 190, 245, 107, 242, 62, 87, 1, 143, 190, 139, 7, 208, 0, 208, 0, 117, 127, 0, 48, 30, 45, 61, 74, 140, 190, 76, 238, 23, 63, 58, 74, 140, 62, 139, 7, 48, 0, 48, 0, 117, 127, 0, 54, 102, 42, 102, 102, 198, 190, 76, 238, 23, 63, 0, 0, 0, 128, 139, 7, 48, 0, 48, 0, 117, 127, 0, 52, 102, 42, 113, 61, 202, 190, 245, 107, 242, 62, 0, 0, 0, 128, 139, 7, 48, 0, 48, 0, 117, 127, 0, 52, 30, 45, 0, 0, 0, 0, 76, 238, 23, 63, 102, 102, 198, 62, 208, 7, 117, 0, 117, 0, 48, 127, 0, 56, 102, 42, 61, 74, 140, 190, 76, 238, 23, 63, 58, 74, 140, 62, 208, 7, 117, 0, 117, 0, 48, 127, 0, 54, 102, 42, 90, 1, 143, 190, 245, 107, 242, 62, 87, 1, 143, 62, 208, 7, 117, 0, 117, 0, 48, 127, 0, 54, 30, 45, 61, 74, 140, 62, 76, 238, 23, 63, 61, 74, 140, 62, 48, 7, 117, 0, 117, 0, 208, 127, 0, 57, 102, 42, 0, 0, 0, 0, 76, 238, 23, 63, 102, 102, 198, 62, 48, 7, 117, 0, 117, 0, 208, 127, 0, 56, 102, 42, 0, 0, 0, 0, 245, 107, 242, 62, 113, 61, 202, 62, 48, 7, 117, 0, 117, 0, 208, 127, 0, 56, 30, 45, 102, 102, 198, 62, 76, 238, 23, 63, 0, 0, 0, 128, 117, 7, 48, 0, 48, 0, 139, 127, 0, 58, 102, 42, 61, 74, 140, 62, 76, 238, 23, 63, 61, 74, 140, 62, 117, 7, 48, 0, 48, 0, 139, 127, 0, 57, 102, 42, 87, 1, 143, 62, 245, 107, 242, 62, 87, 1, 143, 62, 117, 7, 48, 0, 48, 0, 139, 127, 0, 57, 30, 45, 61, 74, 140, 62, 76, 238, 23, 63, 61, 74, 140, 190, 117, 7, 208, 0, 208, 0, 139, 127, 0, 59, 102, 42, 102, 102, 198, 62, 76, 238, 23, 63, 0, 0, 0, 128, 117, 7, 208, 0, 208, 0, 139, 127, 0, 58, 102, 42, 113, 61, 202, 62, 245, 107, 242, 62, 0, 0, 0, 128, 117, 7, 208, 0, 208, 0, 139, 127, 0, 58, 30, 45, 0, 0, 0, 0, 248, 107, 242, 62, 113, 61, 202, 190, 48, 7, 139, 0, 139, 0, 208, 127, 0, 60, 30, 45, 0, 0, 0, 0, 76, 238, 23, 63, 102, 102, 198, 190, 48, 7, 139, 0, 139, 0, 208, 127, 0, 60, 102, 42, 61, 74, 140, 62, 76, 238, 23, 63, 61, 74, 140, 190, 48, 7, 139, 0, 139, 0, 208, 127, 0, 59, 102, 42, 0, 0, 0, 0, 128, 33, 75, 63, 102, 102, 230, 190, 48, 8, 139, 0, 139, 0, 208, 127, 0, 60, 0, 0, 217, 234, 162, 62, 128, 33, 75, 63, 217, 234, 162, 190, 48, 8, 139, 0, 139, 0, 208, 127, 0, 59, 0, 0, 20, 89, 168, 62, 76, 238, 23, 63, 20, 89, 168, 190, 48, 8, 139, 0, 139, 0, 208, 127, 0, 59, 102, 42, 217, 234, 162, 62, 128, 33, 75, 63, 217, 234, 162, 190, 117, 8, 208, 0, 208, 0, 139, 127, 0, 59, 0, 0, 102, 102, 230, 62, 128, 33, 75, 63, 0, 0, 0, 128, 117, 8, 208, 0, 208, 0, 139, 127, 0, 58, 0, 0, 123, 20, 238, 62, 76, 238, 23, 63, 0, 0, 0, 128, 117, 8, 208, 0, 208, 0, 139, 127, 0, 58, 102, 42, 102, 102, 230, 62, 128, 33, 75, 63, 0, 0, 0, 128, 117, 8, 48, 0, 48, 0, 139, 127, 0, 58, 0, 0, 217, 234, 162, 62, 128, 33, 75, 63, 217, 234, 162, 62, 117, 8, 48, 0, 48, 0, 139, 127, 0, 57, 0, 0, 20, 89, 168, 62, 76, 238, 23, 63, 20, 89, 168, 62, 117, 8, 48, 0, 48, 0, 139, 127, 0, 57, 102, 42, 217, 234, 162, 62, 128, 33, 75, 63, 217, 234, 162, 62, 48, 8, 117, 0, 117, 0, 208, 127, 0, 57, 0, 0, 0, 0, 0, 0, 128, 33, 75, 63, 102, 102, 230, 62, 48, 8, 117, 0, 117, 0, 208, 127, 0, 56, 0, 0, 0, 0, 0, 0, 76, 238, 23, 63, 123, 20, 238, 62, 48, 8, 117, 0, 117, 0, 208, 127, 0, 56, 102, 42, 0, 0, 0, 0, 76, 238, 23, 63, 123, 20, 238, 62, 208, 8, 117, 0, 117, 0, 48, 127, 0, 56, 102, 42, 0, 0, 0, 0, 128, 33, 75, 63, 102, 102, 230, 62, 208, 8, 117, 0, 117, 0, 48, 127, 0, 56, 0, 0, 221, 234, 162, 190, 128, 33, 75, 63, 217, 234, 162, 62, 208, 8, 117, 0, 117, 0, 48, 127, 0, 54, 0, 0, 23, 89, 168, 190, 76, 238, 23, 63, 20, 89, 168, 62, 139, 8, 48, 0, 48, 0, 117, 127, 0, 54, 102, 42, 221, 234, 162, 190, 128, 33, 75, 63, 217, 234, 162, 62, 139, 8, 48, 0, 48, 0, 117, 127, 0, 54, 0, 0, 102, 102, 230, 190, 128, 33, 75, 63, 0, 0, 0, 128, 139, 8, 48, 0, 48, 0, 117, 127, 0, 52, 0, 0, 102, 102, 230, 190, 128, 33, 75, 63, 0, 0, 0, 128, 139, 8, 208, 0, 208, 0, 117, 127, 0, 52, 0, 0, 221, 234, 162, 190, 128, 33, 75, 63, 217, 234, 162, 190, 139, 8, 208, 0, 208, 0, 117, 127, 0, 48, 0, 0, 23, 89, 168, 190, 76, 238, 23, 63, 20, 89, 168, 190, 139, 8, 208, 0, 208, 0, 117, 127, 0, 48, 102, 42, 221, 234, 162, 190, 128, 33, 75, 63, 217, 234, 162, 190, 208, 8, 139, 0, 139, 0, 48, 127, 0, 48, 0, 0, 0, 0, 0, 0, 128, 33, 75, 63, 102, 102, 230, 190, 208, 8, 139, 0, 139, 0, 48, 127, 0, 0, 0, 0, 0, 0, 0, 0, 76, 238, 23, 63, 123, 20, 238, 190, 208, 8, 139, 0, 139, 0, 48, 127, 0, 0, 102, 42, 61, 74, 140, 190, 76, 238, 23, 63, 58, 74, 140, 62, 0, 129, 0, 0, 127, 0, 0, 127, 0, 54, 102, 42, 61, 74, 140, 62, 76, 238, 23, 63, 61, 74, 140, 62, 0, 129, 0, 0, 127, 0, 0, 127, 0, 57, 102, 42, 20, 89, 168, 62, 76, 238, 23, 63, 20, 89, 168, 62, 0, 129, 0, 0, 127, 0, 0, 127, 0, 57, 102, 42, 184, 195, 135, 190, 128, 33, 75, 63, 181, 195, 135, 62, 0, 127, 0, 0, 127, 0, 0, 127, 35, 45, 91, 59, 221, 234, 162, 190, 128, 33, 75, 63, 217, 234, 162, 62, 0, 127, 0, 0, 127, 0, 0, 127, 35, 45, 91, 59, 0, 0, 0, 0, 128, 33, 75, 63, 102, 102, 230, 62, 0, 127, 0, 0, 127, 0, 0, 127, 0, 52, 235, 59, 102, 102, 198, 62, 76, 238, 23, 63, 0, 0, 0, 128, 0, 129, 0, 0, 127, 0, 0, 127, 0, 58, 102, 42, 123, 20, 238, 62, 76, 238, 23, 63, 0, 0, 0, 128, 0, 129, 0, 0, 127, 0, 0, 127, 0, 58, 102, 42, 0, 0, 192, 62, 128, 33, 75, 63, 0, 0, 0, 128, 0, 127, 0, 0, 127, 0, 0, 127, 215, 55, 0, 58, 181, 195, 135, 62, 128, 33, 75, 63, 181, 195, 135, 62, 0, 127, 0, 0, 127, 0, 0, 127, 183, 54, 91, 59, 217, 234, 162, 62, 128, 33, 75, 63, 217, 234, 162, 62, 0, 127, 0, 0, 127, 0, 0, 127, 183, 54, 91, 59, 221, 234, 162, 190, 128, 33, 75, 63, 217, 234, 162, 62, 139, 0, 48, 0, 127, 0, 0, 129, 0, 54, 0, 0, 221, 234, 162, 190, 228, 135, 113, 63, 217, 234, 162, 62, 139, 0, 48, 0, 127, 0, 0, 129, 0, 54, 0, 0, 102, 102, 230, 190, 228, 135, 113, 63, 0, 0, 0, 128, 139, 0, 48, 0, 127, 0, 0, 129, 0, 52, 0, 0, 61, 74, 140, 62, 76, 238, 23, 63, 61, 74, 140, 190, 0, 129, 0, 0, 127, 0, 0, 127, 0, 59, 102, 42, 20, 89, 168, 62, 76, 238, 23, 63, 20, 89, 168, 190, 0, 129, 0, 0, 127, 0, 0, 127, 0, 59, 102, 42, 123, 20, 238, 62, 76, 238, 23, 63, 0, 0, 0, 128, 0, 129, 0, 0, 127, 0, 0, 127, 0, 58, 102, 42, 0, 0, 0, 0, 128, 33, 75, 63, 0, 0, 192, 190, 0, 127, 0, 0, 127, 0, 0, 127, 0, 52, 20, 56, 181, 195, 135, 62, 128, 33, 75, 63, 181, 195, 135, 190, 0, 127, 0, 0, 127, 0, 0, 127, 183, 54, 164, 56, 217, 234, 162, 62, 128, 33, 75, 63, 217, 234, 162, 190, 0, 127, 0, 0, 127, 0, 0, 127, 183, 54, 164, 56, 0, 0, 192, 62, 228, 135, 113, 63, 0, 0, 0, 128, 0, 127, 0, 0, 127, 0, 0, 127, 215, 55, 0, 58, 102, 102, 230, 62, 228, 135, 113, 63, 0, 0, 0, 128, 0, 127, 0, 0, 127, 0, 0, 127, 215, 55, 0, 58, 217, 234, 162, 62, 228, 135, 113, 63, 217, 234, 162, 190, 0, 127, 0, 0, 127, 0, 0, 127, 183, 54, 164, 56, 0, 0, 0, 0, 228, 135, 113, 63, 102, 102, 230, 62, 0, 127, 0, 0, 127, 0, 0, 127, 0, 52, 235, 59, 184, 195, 135, 190, 228, 135, 113, 63, 181, 195, 135, 62, 0, 127, 0, 0, 127, 0, 0, 127, 35, 45, 91, 59, 0, 0, 192, 190, 228, 135, 113, 63, 0, 0, 0, 128, 0, 127, 0, 0, 127, 0, 0, 127, 30, 33, 0, 58, 102, 102, 230, 190, 228, 135, 113, 63, 0, 0, 0, 128, 0, 127, 0, 0, 127, 0, 0, 127, 30, 33, 0, 58, 0, 0, 0, 0, 228, 135, 113, 63, 102, 102, 230, 190, 0, 127, 0, 0, 127, 0, 0, 127, 0, 52, 20, 56, 0, 0, 0, 0, 228, 135, 113, 63, 0, 0, 192, 62, 208, 0, 139, 0, 127, 0, 0, 127, 0, 52, 235, 59, 221, 234, 162, 190, 128, 33, 75, 63, 217, 234, 162, 190, 208, 0, 139, 0, 127, 0, 0, 127, 0, 48, 0, 0, 221, 234, 162, 190, 228, 135, 113, 63, 217, 234, 162, 190, 208, 0, 139, 0, 127, 0, 0, 127, 0, 48, 0, 0, 0, 0, 0, 0, 228, 135, 113, 63, 102, 102, 230, 190, 208, 0, 139, 0, 127, 0, 0, 127, 0, 0, 0, 0, 0, 0, 0, 0, 228, 135, 113, 63, 102, 102, 230, 190, 127, 0, 0, 0, 127, 0, 0, 127, 0, 52, 20, 56, 0, 0, 192, 62, 128, 33, 75, 63, 0, 0, 0, 128, 139, 0, 48, 0, 127, 0, 0, 129, 215, 55, 0, 58, 0, 0, 192, 62, 228, 135, 113, 63, 0, 0, 0, 128, 139, 0, 48, 0, 127, 0, 0, 129, 215, 55, 0, 58, 181, 195, 135, 62, 228, 135, 113, 63, 181, 195, 135, 190, 139, 0, 48, 0, 127, 0, 0, 129, 183, 54, 164, 56, 217, 234, 162, 62, 228, 135, 113, 63, 217, 234, 162, 190, 117, 0, 208, 0, 127, 0, 0, 127, 0, 59, 0, 0, 184, 195, 135, 190, 128, 33, 75, 63, 181, 195, 135, 62, 89, 0, 89, 0, 127, 0, 0, 129, 35, 45, 91, 59, 184, 195, 135, 190, 228, 135, 113, 63, 181, 195, 135, 62, 89, 0, 89, 0, 127, 0, 0, 129, 35, 45, 91, 59, 221, 234, 162, 190, 228, 135, 113, 63, 217, 234, 162, 62, 89, 0, 89, 0, 127, 0, 0, 129, 35, 45, 91, 59, 102, 102, 230, 62, 228, 135, 113, 63, 0, 0, 0, 128, 0, 0, 127, 0, 127, 0, 0, 129, 215, 55, 0, 58, 181, 195, 135, 62, 128, 33, 75, 63, 181, 195, 135, 190, 167, 0, 167, 0, 127, 0, 0, 127, 183, 54, 164, 56, 181, 195, 135, 62, 228, 135, 113, 63, 181, 195, 135, 190, 167, 0, 167, 0, 127, 0, 0, 127, 183, 54, 164, 56, 217, 234, 162, 62, 228, 135, 113, 63, 217, 234, 162, 190, 167, 0, 167, 0, 127, 0, 0, 127, 183, 54, 164, 56, 102, 102, 230, 190, 228, 135, 113, 63, 0, 0, 0, 128, 0, 0, 129, 0, 127, 0, 0, 127, 30, 33, 0, 58, 217, 234, 162, 62, 128, 33, 75, 63, 217, 234, 162, 62, 48, 0, 117, 0, 127, 0, 0, 129, 0, 57, 0, 0, 217, 234, 162, 62, 228, 135, 113, 63, 217, 234, 162, 62, 48, 0, 117, 0, 127, 0, 0, 129, 0, 57, 0, 0, 0, 0, 0, 0, 228, 135, 113, 63, 102, 102, 230, 62, 48, 0, 117, 0, 127, 0, 0, 129, 0, 56, 0, 0, 184, 195, 135, 190, 128, 33, 75, 63, 181, 195, 135, 190, 167, 0, 89, 0, 127, 0, 0, 129, 35, 45, 164, 56, 184, 195, 135, 190, 228, 135, 113, 63, 181, 195, 135, 190, 167, 0, 89, 0, 127, 0, 0, 129, 35, 45, 164, 56, 221, 234, 162, 190, 228, 135, 113, 63, 217, 234, 162, 190, 167, 0, 89, 0, 127, 0, 0, 129, 35, 45, 164, 56, 0, 0, 0, 0, 228, 135, 113, 63, 0, 0, 192, 190, 48, 0, 117, 0, 127, 0, 0, 129, 0, 52, 20, 56, 0, 0, 0, 0, 0, 0, 0, 0, 48, 100, 217, 190, 48, 7, 139, 0, 139, 0, 208, 127, 0, 60, 89, 50, 0, 0, 0, 0, 255, 138, 195, 61, 4, 86, 214, 190, 48, 7, 139, 0, 139, 0, 208, 127, 0, 60, 149, 49, 243, 142, 151, 62, 247, 138, 195, 61, 243, 142, 151, 190, 48, 7, 139, 0, 139, 0, 208, 127, 0, 59, 149, 49, 0, 0, 0, 0, 255, 138, 195, 61, 4, 86, 214, 190, 48, 7, 139, 0, 139, 0, 208, 127, 0, 60, 149, 49, 0, 0, 0, 0, 248, 107, 242, 62, 113, 61, 202, 190, 48, 7, 139, 0, 139, 0, 208, 127, 0, 60, 30, 45, 87, 1, 143, 62, 245, 107, 242, 62, 87, 1, 143, 190, 48, 7, 139, 0, 139, 0, 208, 127, 0, 59, 30, 45, 243, 142, 151, 62, 247, 138, 195, 61, 243, 142, 151, 190, 117, 7, 208, 0, 208, 0, 139, 127, 0, 59, 149, 49, 1, 86, 214, 62, 247, 138, 195, 61, 0, 0, 0, 128, 117, 7, 208, 0, 208, 0, 139, 127, 0, 58, 149, 49, 45, 100, 217, 62, 0, 0, 0, 0, 0, 0, 0, 128, 117, 7, 208, 0, 208, 0, 139, 127, 0, 58, 89, 50, 87, 1, 143, 62, 245, 107, 242, 62, 87, 1, 143, 190, 117, 7, 208, 0, 208, 0, 139, 127, 0, 59, 30, 45, 113, 61, 202, 62, 245, 107, 242, 62, 0, 0, 0, 128, 117, 7, 208, 0, 208, 0, 139, 127, 0, 58, 30, 45, 1, 86, 214, 62, 247, 138, 195, 61, 0, 0, 0, 128, 117, 7, 208, 0, 208, 0, 139, 127, 0, 58, 149, 49, 1, 86, 214, 62, 247, 138, 195, 61, 0, 0, 0, 128, 117, 7, 48, 0, 48, 0, 139, 127, 0, 58, 149, 49, 243, 142, 151, 62, 247, 138, 195, 61, 243, 142, 151, 62, 117, 7, 48, 0, 48, 0, 139, 127, 0, 57, 149, 49, 9, 184, 153, 62, 0, 0, 0, 0, 9, 184, 153, 62, 117, 7, 48, 0, 48, 0, 139, 127, 0, 57, 89, 50, 113, 61, 202, 62, 245, 107, 242, 62, 0, 0, 0, 128, 117, 7, 48, 0, 48, 0, 139, 127, 0, 58, 30, 45, 87, 1, 143, 62, 245, 107, 242, 62, 87, 1, 143, 62, 117, 7, 48, 0, 48, 0, 139, 127, 0, 57, 30, 45, 243, 142, 151, 62, 247, 138, 195, 61, 243, 142, 151, 62, 117, 7, 48, 0, 48, 0, 139, 127, 0, 57, 149, 49, 0, 0, 0, 0, 0, 0, 0, 0, 45, 100, 217, 62, 48, 7, 117, 0, 117, 0, 208, 127, 0, 56, 89, 50, 87, 1, 143, 62, 245, 107, 242, 62, 87, 1, 143, 62, 48, 7, 117, 0, 117, 0, 208, 127, 0, 57, 30, 45, 0, 0, 0, 0, 245, 107, 242, 62, 113, 61, 202, 62, 48, 7, 117, 0, 117, 0, 208, 127, 0, 56, 30, 45, 0, 0, 0, 0, 247, 138, 195, 61, 1, 86, 214, 62, 48, 7, 117, 0, 117, 0, 208, 127, 0, 56, 149, 49, 0, 0, 0, 0, 247, 138, 195, 61, 1, 86, 214, 62, 208, 7, 117, 0, 117, 0, 48, 127, 0, 56, 149, 49, 247, 142, 151, 190, 247, 138, 195, 61, 243, 142, 151, 62, 208, 7, 117, 0, 117, 0, 48, 127, 0, 54, 149, 49, 9, 184, 153, 190, 0, 0, 0, 0, 9, 184, 153, 62, 208, 7, 117, 0, 117, 0, 48, 127, 0, 54, 89, 50, 0, 0, 0, 0, 245, 107, 242, 62, 113, 61, 202, 62, 208, 7, 117, 0, 117, 0, 48, 127, 0, 56, 30, 45, 90, 1, 143, 190, 245, 107, 242, 62, 87, 1, 143, 62, 208, 7, 117, 0, 117, 0, 48, 127, 0, 54, 30, 45, 247, 142, 151, 190, 247, 138, 195, 61, 243, 142, 151, 62, 208, 7, 117, 0, 117, 0, 48, 127, 0, 54, 149, 49, 247, 142, 151, 190, 247, 138, 195, 61, 243, 142, 151, 62, 139, 7, 48, 0, 48, 0, 117, 127, 0, 54, 149, 49, 1, 86, 214, 190, 247, 138, 195, 61, 0, 0, 0, 128, 139, 7, 48, 0, 48, 0, 117, 127, 0, 52, 149, 49, 45, 100, 217, 190, 0, 0, 0, 0, 0, 0, 0, 128, 139, 7, 48, 0, 48, 0, 117, 127, 0, 52, 89, 50, 90, 1, 143, 190, 245, 107, 242, 62, 87, 1, 143, 62, 0, 129, 0, 0, 127, 0, 0, 127, 0, 54, 30, 45, 113, 61, 202, 190, 245, 107, 242, 62, 0, 0, 0, 128, 0, 129, 0, 0, 127, 0, 0, 127, 0, 52, 30, 45, 8, 95, 211, 61, 248, 107, 242, 62, 0, 0, 0, 128, 0, 129, 0, 0, 127, 0, 0, 127, 0, 52, 30, 45, 1, 86, 214, 190, 247, 138, 195, 61, 0, 0, 0, 128, 139, 7, 208, 0, 208, 0, 117, 127, 0, 52, 149, 49, 247, 142, 151, 190, 247, 138, 195, 61, 243, 142, 151, 190, 139, 7, 208, 0, 208, 0, 117, 127, 0, 48, 149, 49, 9, 184, 153, 190, 0, 0, 0, 0, 9, 184, 153, 190, 139, 7, 208, 0, 208, 0, 117, 127, 0, 48, 89, 50, 224, 94, 211, 61, 248, 107, 242, 62, 87, 1, 143, 190, 0, 129, 0, 0, 127, 0, 0, 127, 0, 48, 30, 45, 247, 142, 151, 190, 247, 138, 195, 61, 243, 142, 151, 190, 208, 7, 139, 0, 139, 0, 48, 127, 0, 48, 149, 49, 0, 0, 0, 0, 255, 138, 195, 61, 4, 86, 214, 190, 208, 7, 139, 0, 139, 0, 48, 127, 0, 0, 149, 49, 0, 0, 0, 0, 0, 0, 0, 0, 48, 100, 217, 190, 208, 7, 139, 0, 139, 0, 48, 127, 0, 0, 89, 50, 90, 1, 143, 190, 245, 107, 242, 62, 87, 1, 143, 190, 208, 7, 139, 0, 139, 0, 48, 127, 0, 48, 30, 45, 0, 0, 0, 0, 248, 107, 242, 62, 113, 61, 202, 190, 208, 7, 139, 0, 139, 0, 48, 127, 0, 0, 30, 45, 0, 0, 0, 0, 255, 138, 195, 61, 4, 86, 214, 190, 208, 7, 139, 0, 139, 0, 48, 127, 0, 0, 149, 49, 224, 94, 211, 61, 248, 107, 242, 62, 87, 1, 143, 62, 129, 0, 0, 0, 0, 0, 127, 127, 0, 54, 30, 45, 8, 95, 211, 61, 248, 107, 242, 62, 0, 0, 0, 128, 129, 0, 0, 0, 0, 0, 127, 127, 0, 52, 30, 45, 250, 94, 211, 61, 255, 138, 195, 61, 0, 0, 0, 128, 129, 0, 0, 0, 0, 0, 126, 127, 0, 52, 149, 49, 250, 94, 211, 61, 255, 138, 195, 61, 0, 0, 0, 128, 129, 0, 0, 0, 0, 0, 126, 127, 0, 52, 149, 49, 8, 95, 211, 61, 248, 107, 242, 62, 0, 0, 0, 128, 129, 0, 0, 0, 0, 0, 127, 127, 0, 52, 30, 45, 224, 94, 211, 61, 248, 107, 242, 62, 87, 1, 143, 190, 129, 0, 0, 0, 0, 0, 127, 127, 0, 48, 30, 45, 237, 94, 211, 61, 255, 138, 195, 61, 243, 142, 151, 62, 0, 127, 0, 0, 127, 0, 0, 127, 0, 54, 149, 49, 90, 1, 143, 190, 245, 107, 242, 62, 87, 1, 143, 190, 0, 251, 126, 0, 127, 0, 0, 129, 0, 48, 30, 45, 247, 142, 151, 190, 247, 138, 195, 61, 243, 142, 151, 190, 0, 251, 126, 0, 127, 0, 0, 129, 0, 48, 149, 49, 237, 94, 211, 61, 255, 138, 195, 61, 243, 142, 151, 190, 0, 251, 126, 0, 127, 0, 0, 129, 0, 48, 149, 49, 90, 1, 143, 190, 245, 107, 242, 62, 87, 1, 143, 62, 0, 251, 130, 0, 127, 0, 0, 127, 0, 54, 30, 45, 224, 94, 211, 61, 248, 107, 242, 62, 87, 1, 143, 62, 0, 251, 130, 0, 127, 0, 0, 127, 0, 54, 30, 45, 237, 94, 211, 61, 255, 138, 195, 61, 243, 142, 151, 62, 0, 251, 130, 0, 127, 0, 0, 127, 0, 54, 149, 49, 0, 0, 192, 62, 109, 140, 7, 63, 0, 0, 0, 128, 0, 127, 0, 0, 127, 0, 0, 127, 215, 55, 0, 58, 181, 195, 135, 62, 109, 140, 7, 63, 181, 195, 135, 190, 0, 127, 0, 0, 127, 0, 0, 127, 183, 54, 164, 56, 0, 0, 0, 0, 109, 140, 7, 63, 0, 0, 192, 190, 0, 127, 0, 0, 127, 0, 0, 127, 0, 52, 20, 56, 184, 195, 135, 190, 109, 140, 7, 63, 181, 195, 135, 190, 0, 127, 0, 0, 127, 0, 0, 127, 35, 45, 164, 56, 0, 0, 192, 190, 109, 140, 7, 63, 0, 0, 0, 128, 0, 127, 0, 0, 127, 0, 0, 127, 30, 33, 0, 58, 184, 195, 135, 190, 109, 140, 7, 63, 181, 195, 135, 62, 0, 127, 0, 0, 127, 0, 0, 127, 35, 45, 91, 59, 0, 0, 0, 0, 109, 140, 7, 63, 0, 0, 192, 62, 0, 127, 0, 0, 127, 0, 0, 127, 0, 52, 235, 59, 0, 0, 0, 0, 109, 140, 7, 63, 0, 0, 192, 62, 0, 127, 0, 0, 127, 0, 0, 127, 0, 52, 235, 59, 181, 195, 135, 62, 109, 140, 7, 63, 181, 195, 135, 62, 0, 127, 0, 0, 127, 0, 0, 127, 183, 54, 91, 59, 0, 0, 192, 190, 109, 140, 7, 63, 0, 0, 0, 128, 117, 0, 48, 0, 127, 0, 0, 129, 30, 33, 0, 58, 181, 195, 135, 62, 109, 140, 7, 63, 181, 195, 135, 190, 139, 0, 48, 0, 127, 0, 0, 129, 183, 54, 164, 56, 0, 0, 0, 0, 109, 140, 7, 63, 0, 0, 192, 62, 48, 0, 139, 0, 127, 0, 0, 127, 0, 52, 235, 59, 184, 195, 135, 190, 109, 140, 7, 63, 181, 195, 135, 190, 48, 0, 117, 0, 127, 0, 0, 129, 35, 45, 164, 56, 0, 0, 0, 0, 109, 140, 7, 63, 0, 0, 192, 190, 48, 0, 117, 0, 127, 0, 0, 129, 0, 52, 20, 56, 0, 0, 0, 0, 128, 33, 75, 63, 0, 0, 192, 190, 208, 0, 117, 0, 127, 0, 0, 129, 0, 52, 20, 56, 0, 0, 0, 0, 109, 140, 7, 63, 0, 0, 192, 190, 208, 0, 117, 0, 127, 0, 0, 129, 0, 52, 20, 56, 181, 195, 135, 62, 109, 140, 7, 63, 181, 195, 135, 190, 208, 0, 117, 0, 127, 0, 0, 129, 183, 54, 164, 56, 0, 0, 192, 62, 128, 33, 75, 63, 0, 0, 0, 128, 139, 0, 208, 0, 127, 0, 0, 127, 215, 55, 0, 58, 0, 0, 192, 62, 109, 140, 7, 63, 0, 0, 0, 128, 139, 0, 208, 0, 127, 0, 0, 127, 215, 55, 0, 58, 181, 195, 135, 62, 109, 140, 7, 63, 181, 195, 135, 62, 139, 0, 208, 0, 127, 0, 0, 127, 183, 54, 91, 59, 184, 195, 135, 190, 128, 33, 75, 63, 181, 195, 135, 62, 117, 0, 208, 0, 127, 0, 0, 127, 35, 45, 91, 59, 184, 195, 135, 190, 109, 140, 7, 63, 181, 195, 135, 62, 117, 0, 208, 0, 127, 0, 0, 127, 35, 45, 91, 59, 0, 0, 192, 190, 109, 140, 7, 63, 0, 0, 0, 128, 117, 0, 208, 0, 127, 0, 0, 127, 30, 33, 0, 58, 45, 100, 217, 190, 0, 0, 0, 0, 0, 0, 0, 128, 0, 129, 0, 0, 127, 0, 0, 127, 0, 52, 89, 50, 9, 184, 153, 190, 0, 0, 0, 0, 9, 184, 153, 190, 0, 129, 0, 0, 127, 0, 0, 127, 0, 48, 89, 50, 0, 0, 0, 0, 0, 0, 0, 0, 48, 100, 217, 190, 0, 129, 0, 0, 127, 0, 0, 127, 0, 60, 89, 50, 0, 0, 0, 0, 0, 0, 0, 0, 48, 100, 217, 190, 0, 129, 0, 0, 139, 0, 208, 129, 0, 60, 89, 50, 9, 184, 153, 62, 0, 0, 0, 0, 9, 184, 153, 190, 0, 129, 0, 0, 139, 0, 208, 129, 0, 59, 89, 50, 45, 100, 217, 62, 0, 0, 0, 0, 0, 0, 0, 128, 0, 129, 0, 0, 139, 0, 208, 129, 0, 58, 89, 50, 9, 184, 153, 62, 0, 0, 0, 0, 9, 184, 153, 62, 0, 129, 0, 0, 117, 0, 48, 129, 0, 57, 89, 50, 0, 0, 0, 0, 0, 0, 0, 0, 45, 100, 217, 62, 0, 129, 0, 0, 127, 0, 0, 127, 0, 56, 89, 50, 9, 184, 153, 190, 0, 0, 0, 0, 9, 184, 153, 62, 0, 129, 0, 0, 127, 0, 0, 127, 0, 54, 89, 50 ),
"array_index_data": PoolByteArray( 0, 0, 2, 0, 1, 0, 3, 0, 5, 0, 4, 0, 6, 0, 8, 0, 7, 0, 9, 0, 11, 0, 10, 0, 12, 0, 13, 0, 7, 0, 14, 0, 16, 0, 15, 0, 17, 0, 19, 0, 18, 0, 20, 0, 22, 0, 21, 0, 23, 0, 25, 0, 24, 0, 26, 0, 28, 0, 27, 0, 29, 0, 31, 0, 30, 0, 32, 0, 34, 0, 33, 0, 35, 0, 37, 0, 36, 0, 38, 0, 40, 0, 39, 0, 41, 0, 43, 0, 42, 0, 44, 0, 46, 0, 45, 0, 47, 0, 49, 0, 48, 0, 50, 0, 52, 0, 51, 0, 53, 0, 55, 0, 54, 0, 56, 0, 58, 0, 57, 0, 59, 0, 61, 0, 60, 0, 62, 0, 64, 0, 63, 0, 65, 0, 67, 0, 66, 0, 68, 0, 70, 0, 69, 0, 71, 0, 73, 0, 72, 0, 6, 0, 75, 0, 74, 0, 76, 0, 78, 0, 77, 0, 79, 0, 81, 0, 80, 0, 82, 0, 84, 0, 83, 0, 85, 0, 87, 0, 86, 0, 88, 0, 90, 0, 89, 0, 91, 0, 93, 0, 92, 0, 94, 0, 96, 0, 95, 0, 97, 0, 99, 0, 98, 0, 100, 0, 102, 0, 101, 0, 103, 0, 105, 0, 104, 0, 106, 0, 108, 0, 107, 0, 109, 0, 111, 0, 110, 0, 112, 0, 114, 0, 113, 0, 115, 0, 117, 0, 116, 0, 118, 0, 120, 0, 119, 0, 121, 0, 123, 0, 122, 0, 124, 0, 126, 0, 125, 0, 127, 0, 129, 0, 128, 0, 130, 0, 132, 0, 131, 0, 133, 0, 135, 0, 134, 0, 136, 0, 138, 0, 137, 0, 139, 0, 141, 0, 140, 0, 142, 0, 144, 0, 143, 0, 145, 0, 147, 0, 146, 0, 148, 0, 150, 0, 149, 0, 151, 0, 153, 0, 152, 0, 154, 0, 156, 0, 155, 0, 157, 0, 159, 0, 158, 0, 160, 0, 162, 0, 161, 0, 163, 0, 165, 0, 164, 0, 166, 0, 168, 0, 167, 0, 169, 0, 171, 0, 170, 0, 172, 0, 174, 0, 173, 0, 175, 0, 177, 0, 176, 0, 178, 0, 180, 0, 179, 0, 181, 0, 183, 0, 182, 0, 184, 0, 185, 0, 179, 0, 186, 0, 188, 0, 187, 0, 189, 0, 191, 0, 190, 0, 192, 0, 194, 0, 193, 0, 195, 0, 197, 0, 196, 0, 198, 0, 200, 0, 199, 0, 201, 0, 202, 0, 199, 0, 203, 0, 205, 0, 204, 0, 206, 0, 208, 0, 207, 0, 209, 0, 211, 0, 210, 0, 212, 0, 214, 0, 213, 0, 215, 0, 217, 0, 216, 0, 218, 0, 220, 0, 219, 0, 221, 0, 223, 0, 222, 0, 224, 0, 226, 0, 225, 0, 227, 0, 229, 0, 228, 0, 230, 0, 232, 0, 231, 0, 233, 0, 235, 0, 234, 0, 236, 0, 238, 0, 237, 0, 3, 0, 4, 0, 239, 0, 6, 0, 7, 0, 75, 0, 240, 0, 242, 0, 241, 0, 12, 0, 7, 0, 8, 0, 12, 0, 243, 0, 13, 0, 111, 0, 245, 0, 244, 0, 246, 0, 248, 0, 247, 0, 249, 0, 251, 0, 250, 0, 252, 0, 254, 0, 253, 0, 255, 0, 1, 1, 0, 1, 2, 1, 4, 1, 3, 1, 5, 1, 7, 1, 6, 1, 8, 1, 10, 1, 9, 1, 11, 1, 13, 1, 12, 1, 14, 1, 16, 1, 15, 1, 17, 1, 19, 1, 18, 1, 20, 1, 22, 1, 21, 1, 23, 1, 25, 1, 24, 1, 26, 1, 28, 1, 27, 1, 29, 1, 31, 1, 30, 1, 32, 1, 34, 1, 33, 1, 35, 1, 37, 1, 36, 1, 38, 1, 40, 1, 39, 1, 41, 1, 43, 1, 42, 1, 44, 1, 77, 0, 78, 0, 45, 1, 74, 0, 46, 1, 47, 1, 49, 1, 48, 1, 50, 1, 46, 1, 51, 1, 52, 1, 54, 1, 53, 1, 55, 1, 57, 1, 56, 1, 58, 1, 60, 1, 59, 1, 61, 1, 63, 1, 62, 1, 64, 1, 66, 1, 65, 1, 100, 0, 101, 0, 67, 1, 68, 1, 70, 1, 69, 1, 106, 0, 107, 0, 71, 1, 109, 0, 110, 0, 72, 1, 73, 1, 75, 1, 74, 1, 115, 0, 116, 0, 76, 1, 77, 1, 79, 1, 78, 1, 121, 0, 122, 0, 80, 1, 81, 1, 83, 1, 82, 1, 127, 0, 128, 0, 84, 1, 85, 1, 87, 1, 86, 1, 133, 0, 134, 0, 88, 1, 89, 1, 91, 1, 90, 1, 92, 1, 94, 1, 93, 1, 142, 0, 143, 0, 95, 1, 96, 1, 98, 1, 97, 1, 99, 1, 101, 1, 100, 1, 102, 1, 104, 1, 103, 1, 105, 1, 107, 1, 106, 1, 108, 1, 110, 1, 109, 1, 111, 1, 113, 1, 112, 1, 168, 0, 114, 1, 167, 0, 115, 1, 117, 1, 116, 1, 118, 1, 120, 1, 119, 1, 121, 1, 123, 1, 122, 1, 124, 1, 126, 1, 125, 1, 127, 1, 129, 1, 128, 1, 130, 1, 132, 1, 131, 1, 184, 0, 179, 0, 133, 1, 134, 1, 136, 1, 135, 1, 137, 1, 139, 1, 138, 1, 140, 1, 142, 1, 141, 1, 143, 1, 145, 1, 144, 1, 198, 0, 199, 0, 202, 0, 201, 0, 199, 0, 146, 1, 147, 1, 149, 1, 148, 1, 150, 1, 152, 1, 151, 1, 153, 1, 155, 1, 154, 1, 210, 0, 211, 0, 156, 1, 157, 1, 159, 1, 158, 1, 160, 1, 211, 0, 161, 1, 161, 1, 211, 0, 209, 0, 212, 0, 213, 0, 162, 1, 215, 0, 216, 0, 163, 1, 218, 0, 219, 0, 164, 1, 144, 0, 166, 1, 165, 1, 167, 1, 169, 1, 168, 1, 170, 1, 172, 1, 171, 1, 173, 1, 175, 1, 174, 1, 176, 1, 178, 1, 177, 1, 179, 1, 181, 1, 180, 1, 235, 0, 233, 0, 182, 1, 182, 1, 233, 0, 183, 1, 183, 1, 233, 0, 184, 1 ),
"blend_shape_data": [  ],
"format": 97559,
"index_count": 504,
"material": ExtResource( 1 ),
"name": "Tower_Stone",
"primitive": 4,
"skeleton_aabb": [  ],
"vertex_count": 441
}

[node name="Top" type="MeshInstance"]
transform = Transform( 1, 0, 0, 0, 1, 0, 0, 0, 1, 0, 1.257, 0 )
mesh = SubResource( 1 )
material/0 = null
